<?xml version="1.0" encoding="utf-8"?><!-- Uploaded to: SVG Repo, www.svgrepo.com, Generator: SVG Repo Mixer Tools -->
<svg fill="#CD3446" width="800px" height="800px" viewBox="0 0 1920 1920" xmlns="http://www.w3.org/2000/svg">
    <path d="m773.596 1069.654 711.086 711.085c39.632 39.632 104.336 39.632 144.078 0l138.276-138.385c19.268-19.269 29.888-44.778 29.888-71.93 0-27.26-10.62-52.77-29.888-72.039l-698.714-698.714 11.495-32.625c63.5-178.675 18.284-380.45-115.284-514.018-123.715-123.605-305.126-171.01-471.648-128.313l272.281 272.282c32.516 32.406 50.362 75.652 50.362 121.744 0 45.982-17.846 89.227-50.362 121.744L654.48 751.17c-67.222 67.003-176.375 67.003-243.488 0L138.711 478.889c-42.589 166.522 4.707 347.934 128.313 471.648 123.714 123.715 306.22 172.325 476.027 127.218l30.545-8.101ZM1556.611 1920c-54.084 0-108.168-20.692-149.333-61.857L740.095 1190.96c-198.162 41.712-406.725-19.269-550.475-163.019C14.449 852.771-35.256 582.788 65.796 356.27l32.406-72.696 390.194 390.193c24.414 24.305 64.266 24.305 88.68 0l110.687-110.686c11.824-11.934 18.283-27.59 18.283-44.34 0-16.751-6.46-32.516-18.283-44.34L297.569 84.207 370.265 51.8C596.893-49.252 866.875.453 1041.937 175.515c155.026 155.136 212.833 385.157 151.851 594.815l650.651 650.651c39.961 39.852 61.967 92.95 61.967 149.443 0 56.383-22.006 109.482-61.967 149.334l-138.275 138.385c-41.275 41.165-95.36 61.857-149.553 61.857Z" fill-rule="evenodd"/>
</svg>