<svg xmlns="http://www.w3.org/2000/svg" width="73" height="60" fill="none" viewBox="0 0 73 60">
  <path fill="#000" d="m61.802 16.359-.113-6.476A9.715 9.715 0 0 0 51.806.34L19.427.904a9.715 9.715 0 0 0-9.544 9.883l.113 6.476a9.715 9.715 0 0 0-9.544 9.883l.283 16.19a9.715 9.715 0 0 0 9.883 9.544l.056 3.237a3.238 3.238 0 1 0 6.476-.113l-.056-3.237 38.854-.679.056 3.238a3.238 3.238 0 0 0 6.476-.113l-.056-3.238a9.715 9.715 0 0 0 9.544-9.883l-.283-16.19a9.715 9.715 0 0 0-9.883-9.543Z"/>
  <path fill="#66646A" d="m55.213 9.996.157 9.001a9.716 9.716 0 0 0-3.112 7.245l.113 6.476-32.379.565-.113-6.476a9.716 9.716 0 0 0-3.363-7.131l-.157-9.001A3.238 3.238 0 0 1 19.54 7.38l32.379-.565a3.238 3.238 0 0 1 3.294 3.181Z"/>
  <path fill="#66646A" d="m58.96 39.08-.227-12.951a3.238 3.238 0 0 1 6.476-.113l.283 16.19a3.239 3.239 0 0 1-3.182 3.293l-51.805.905a3.239 3.239 0 0 1-3.295-3.182l-.282-16.189a3.238 3.238 0 0 1 6.475-.113l.226 12.951 45.33-.79Z"/>
</svg>
